{
    "server": true,
    "node_name": "cc1s1",
    "datacenter": "dc1",
    "data_dir": "/opt/shared/data/cc1s1",
    "bind_addr": "0.0.0.0",
    "client_addr": "0.0.0.0",
    "advertise_addr": "10.0.1.104",
    "bootstrap_expect": 3,
    "retry_join": [
        "10.0.1.104",
        "10.0.1.105",
        "10.0.1.106"
    ],
    "ui": true,
    "log_level": "DEBUG",
    "enable_syslog": true,
    "log_file": "/opt/shared/data/cc1s1/consul.log",
    "acl_enforce_version_8": false
}